chapter1
…
filter(mpg,cyl==8)

## # A tibble: 70 x 11
##    manufa model    displ  year   cyl trans  drv     cty   hwy fl    class
##    <chr>   <chr>    <dbl> <int> <int> <chr>  <chr> <int> <int> <chr> <chr>
##  1 audi    a6 quat  4.20  2008     8 auto( 4        16    23 p     mids
##  2 chevro c1500 s  5.30  2008     8 auto( r        14    20 r     suv  
##  3 chevro c1500 s  5.30  2008     8 auto( r        11    15 e     suv  
##  4 chevro c1500 s  5.30  2008     8 auto( r        14    20 r     suv  
##  5 chevro c1500 s  5.70  1999     8 auto( r        13    17 r     suv  
##  6 chevro c1500 s  6.00  2008     8 auto( r        12    17 r     suv  
##  7 chevro corvette  5.70  1999     8 manua r        16    26 p     2sea
##  8 chevro corvette  5.70  1999     8 auto( r        15    23 p     2sea
##  9 chevro corvette  6.20  2008     8 manua r        16    26 p     2sea
## 10 chevro corvette  6.20  2008     8 auto( r        15    25 p     2sea
## # ... with 60 more rows
…
